<?xml version="1.0" encoding="UTF-8" standalone="no"?>
<svg
   xmlns:dc="http://purl.org/dc/elements/1.1/"
   xmlns:cc="http://creativecommons.org/ns#"
   xmlns:rdf="http://www.w3.org/1999/02/22-rdf-syntax-ns#"
   xmlns:svg="http://www.w3.org/2000/svg"
   xmlns="http://www.w3.org/2000/svg"
   xmlns:xlink="http://www.w3.org/1999/xlink"
   xmlns:sodipodi="http://sodipodi.sourceforge.net/DTD/sodipodi-0.dtd"
   xmlns:inkscape="http://www.inkscape.org/namespaces/inkscape"
   width="96"
   height="96"
   viewBox="0 0 96 96"
   version="1.1"
   id="svg35"
   sodipodi:docname="Gnome-dialog-question.svg"
   inkscape:version="0.92.1 r15371">
  <metadata
     id="metadata39">
    <rdf:RDF>
      <cc:Work
         rdf:about="">
        <dc:format>image/svg+xml</dc:format>
        <dc:type
           rdf:resource="http://purl.org/dc/dcmitype/StillImage" />
        <dc:title></dc:title>
      </cc:Work>
    </rdf:RDF>
  </metadata>
  <sodipodi:namedview
     pagecolor="#ffffff"
     bordercolor="#666666"
     borderopacity="1"
     objecttolerance="10"
     gridtolerance="10"
     guidetolerance="10"
     inkscape:pageopacity="0"
     inkscape:pageshadow="2"
     inkscape:window-width="1440"
     inkscape:window-height="845"
     id="namedview37"
     showgrid="false"
     inkscape:zoom="4.9166667"
     inkscape:cx="61.934367"
     inkscape:cy="42.846102"
     inkscape:window-x="-1"
     inkscape:window-y="-1"
     inkscape:window-maximized="1"
     inkscape:current-layer="svg35" />
  <defs
     id="defs17">
    <linearGradient
       id="c"
       y2="67.300003"
       gradientUnits="userSpaceOnUse"
       y1="20.51"
       x2="-23.860001"
       x1="-3.8800001">
      <stop
         stop-color="#729fcf"
         offset="0"
         id="stop2" />
      <stop
         stop-color="#3465a4"
         offset="1"
         id="stop4" />
    </linearGradient>
    <radialGradient
       id="a"
       gradientUnits="userSpaceOnUse"
       cy="17.440001"
       cx="10.84"
       gradientTransform="matrix(1,0,0,0.338,0,11.54)"
       r="10.72">
      <stop
         offset="0"
         id="stop7" />
      <stop
         stop-opacity="0"
         offset="1"
         id="stop9" />
    </radialGradient>
    <radialGradient
       id="b"
       gradientUnits="userSpaceOnUse"
       cy="44.529999"
       cx="79.400002"
       gradientTransform="matrix(1.022,0,0,0.984,-43.487339,-28.294165)"
       r="50.669998">
      <stop
         stop-color="#fff"
         offset="0"
         id="stop12" />
      <stop
         stop-color="#fff"
         stop-opacity="0"
         offset="1"
         id="stop14" />
    </radialGradient>
    <radialGradient
       inkscape:collect="always"
       xlink:href="#a"
       id="radialGradient4516"
       gradientUnits="userSpaceOnUse"
       gradientTransform="matrix(1,0,0,0.338,0,11.54)"
       cx="10.84"
       cy="17.440001"
       r="10.72" />
    <radialGradient
       inkscape:collect="always"
       xlink:href="#a"
       id="radialGradient4518"
       gradientUnits="userSpaceOnUse"
       gradientTransform="matrix(1,0,0,0.338,0,11.54)"
       cx="10.84"
       cy="17.440001"
       r="10.72" />
    <radialGradient
       inkscape:collect="always"
       xlink:href="#a"
       id="radialGradient4520"
       gradientUnits="userSpaceOnUse"
       gradientTransform="matrix(1,0,0,0.338,0,11.54)"
       cx="10.84"
       cy="17.440001"
       r="10.72" />
    <filter
       style="color-interpolation-filters:sRGB;"
       inkscape:label="Drop Shadow"
       id="filter5696">
      <feFlood
         flood-opacity="0.498039"
         flood-color="rgb(0,0,0)"
         result="flood"
         id="feFlood5686" />
      <feComposite
         in="flood"
         in2="SourceGraphic"
         operator="in"
         result="composite1"
         id="feComposite5688" />
      <feGaussianBlur
         in="composite1"
         stdDeviation="3.5"
         result="blur"
         id="feGaussianBlur5690" />
      <feOffset
         dx="2"
         dy="2"
         result="offset"
         id="feOffset5692" />
      <feComposite
         in="SourceGraphic"
         in2="offset"
         operator="over"
         result="composite2"
         id="feComposite5694" />
    </filter>
  </defs>
  <g
     id="g23"
     style="fill:url(#radialGradient4520)"
     transform="matrix(2,0,0,2,-5.2873397,-3.3941648)">
    <ellipse
       rx="10.72"
       transform="matrix(1.726,0,0,2,5.28,2.88)"
       ry="3.6300001"
       cy="17.440001"
       cx="10.84"
       id="ellipse19"
       style="opacity:0.2;fill:url(#radialGradient4516)" />
    <ellipse
       rx="10.72"
       transform="matrix(0.467,0,0,0.572,18.94,33)"
       ry="3.6300001"
       cy="17.440001"
       cx="10.84"
       id="ellipse21"
       style="opacity:0.25;fill:url(#radialGradient4518)" />
  </g>
  <g
     id="g29"
     style="stroke-linecap:round;stroke-dashoffset:0.69999999;filter:url(#filter5696)"
     transform="matrix(2.0785222,0,0,2.0785222,-5.2396068,-3.2686989)">
    <rect
       rx="3.0799999"
       transform="rotate(-45)"
       width="30.799999"
       y="17.84"
       x="-14.7"
       height="30.799999"
       id="rect25"
       style="fill:url(#c);stroke:#3465a4" />
    <path
       d="m -11.59,19.3 c -0.9337,0 -1.637,0.6896 -1.637,1.605 v 24.66 c 0,0.9159 0.703,1.605 1.637,1.605 h 24.62 c 0.9337,0 1.605,-0.6718 1.605,-1.605 v -24.66 c 0,-0.9337 -0.6718,-1.605 -1.605,-1.605 z"
       transform="matrix(0.707,-0.707,0.707,0.707,0,0)"
       id="path27"
       inkscape:connector-curvature="0"
       style="fill:none;stroke:#ffffff;stroke-width:2" />
  </g>
  <path
     d="m 46.912661,48.805835 h -7.9 v -1.08 c 0,-1.2 0.24,-2.26 0.72,-3.18 0.48,-0.94 1.5,-2.12 3.04,-3.54 l 1.4,-1.26 c 0.84,-0.76 1.44,-1.48 1.82,-2.14 0.4,-0.68 0.6,-1.34 0.6,-2 0,-1.02 -0.36,-1.82 -1.06,-2.38 -0.7,-0.58 -1.68,-0.88 -2.94,-0.88 -1.18,0 -2.46,0.24 -3.82,0.74 -1.38,0.48 -2.8,1.2 -4.28,2.16 v -6.88 c 1.76,-0.62 3.38,-1.06 4.84,-1.36 1.46,-0.3 2.86,-0.44 4.22,-0.44 3.56,0 6.28,0.72 8.14,2.18 1.86,1.44 2.8,3.56 2.8,6.34 0,1.42 -0.28,2.72 -0.86,3.86 -0.56,1.12 -1.54,2.34 -2.92,3.64 l -1.4,1.24 c -1,0.9 -1.64,1.64 -1.94,2.18 -0.3,0.54 -0.46,1.14 -0.46,1.8 v 0.98 m -8,3.98 h 7.9 v 7.78 h -7.9 v -7.78"
     id="path31"
     inkscape:connector-curvature="0"
     style="fill:#ffffff;stroke-width:2" />
  <path
     d="m 41.452661,5.2058352 c -2,0 -3.8,1.1999997 -4.8,2.9999997 L 2.7126604,40.605835 l 16.0000006,16 64,-16 -36.48,-32.6000001 c -1,-1.8 -2.78,-2.7999997 -4.78,-2.7999997 z"
     id="path33"
     inkscape:connector-curvature="0"
     style="opacity:0.47000002;fill:url(#b);stroke-width:2" />
</svg>
