<?xml version="1.0" encoding="UTF-8" standalone="no"?>
<svg
   xmlns:dc="http://purl.org/dc/elements/1.1/"
   xmlns:cc="http://creativecommons.org/ns#"
   xmlns:rdf="http://www.w3.org/1999/02/22-rdf-syntax-ns#"
   xmlns:svg="http://www.w3.org/2000/svg"
   xmlns="http://www.w3.org/2000/svg"
   xmlns:xlink="http://www.w3.org/1999/xlink"
   xmlns:sodipodi="http://sodipodi.sourceforge.net/DTD/sodipodi-0.dtd"
   xmlns:inkscape="http://www.inkscape.org/namespaces/inkscape"
   viewBox="0 0 96 96"
   width="96"
   height="96"
   version="1.1"
   id="svg74"
   sodipodi:docname="Gnome-dialog-warning2.svg"
   inkscape:version="0.92.1 r15371">
  <metadata
     id="metadata80">
    <rdf:RDF>
      <cc:Work
         rdf:about="">
        <dc:format>image/svg+xml</dc:format>
        <dc:type
           rdf:resource="http://purl.org/dc/dcmitype/StillImage" />
        <dc:title></dc:title>
      </cc:Work>
    </rdf:RDF>
  </metadata>
  <defs
     id="defs78">
    <filter
       style="color-interpolation-filters:sRGB;"
       inkscape:label="Drop Shadow"
       id="filter4567">
      <feFlood
         flood-opacity="0.498039"
         flood-color="rgb(0,0,0)"
         result="flood"
         id="feFlood4557" />
      <feComposite
         in="flood"
         in2="SourceGraphic"
         operator="in"
         result="composite1"
         id="feComposite4559" />
      <feGaussianBlur
         in="composite1"
         stdDeviation="3.5"
         result="blur"
         id="feGaussianBlur4561" />
      <feOffset
         dx="2"
         dy="2"
         result="offset"
         id="feOffset4563" />
      <feComposite
         in="SourceGraphic"
         in2="offset"
         operator="over"
         result="composite2"
         id="feComposite4565" />
    </filter>
  </defs>
  <sodipodi:namedview
     pagecolor="#ffffff"
     bordercolor="#666666"
     borderopacity="1"
     objecttolerance="10"
     gridtolerance="10"
     guidetolerance="10"
     inkscape:pageopacity="0"
     inkscape:pageshadow="2"
     inkscape:window-width="1440"
     inkscape:window-height="845"
     id="namedview76"
     showgrid="false"
     inkscape:zoom="4.9166667"
     inkscape:cx="20.440678"
     inkscape:cy="53.153898"
     inkscape:window-x="-1"
     inkscape:window-y="-1"
     inkscape:window-maximized="1"
     inkscape:current-layer="svg74" />
  <linearGradient
     id="a">
    <stop
       offset="0"
       id="stop2" />
    <stop
       offset="1"
       stop-opacity="0"
       id="stop4" />
  </linearGradient>
  <radialGradient
     id="b"
     cx="30.43"
     cy="52.299999"
     gradientTransform="matrix(0.953,0,0,0.119,7.59,11.6)"
     gradientUnits="userSpaceOnUse"
     r="13.64"
     xlink:href="#a" />
  <linearGradient
     id="c"
     gradientUnits="userSpaceOnUse"
     x1="32.439999"
     x2="39.91"
     y1="-0.30000001"
     y2="27.6">
    <stop
       offset="0"
       stop-color="#f57900"
       id="stop8" />
    <stop
       offset="1"
       stop-color="#be5d00"
       id="stop10" />
  </linearGradient>
  <linearGradient
     id="d"
     gradientTransform="translate(0,-32.5)"
     gradientUnits="userSpaceOnUse"
     x2="0"
     y1="47.529999"
     y2="29.879999">
    <stop
       offset="0"
       stop-color="#b45000"
       id="stop13" />
    <stop
       offset="1"
       stop-color="#f57900"
       id="stop15" />
  </linearGradient>
  <radialGradient
     id="e"
     cx="-341.5"
     cy="303.29999"
     gradientTransform="matrix(2.847,0,0,2.683,1009,-814.1)"
     gradientUnits="userSpaceOnUse"
     r="8.8000002">
    <stop
       offset="0"
       stop-color="#fed496"
       id="stop18" />
    <stop
       offset="1"
       stop-color="#fcaf3e"
       id="stop20" />
  </radialGradient>
  <linearGradient
     id="f"
     x1="24.85"
     x2="42.849998"
     xlink:href="#g"
     y1="-5.1399999"
     y2="19.9" />
  <linearGradient
     id="g"
     gradientUnits="userSpaceOnUse"
     x1="24.85"
     x2="42.849998"
     y1="27.360001"
     y2="52.400002">
    <stop
       offset="0"
       stop-color="#fff"
       id="stop24" />
    <stop
       offset="1"
       stop-color="#fff"
       stop-opacity=".23"
       id="stop26" />
  </linearGradient>
  <linearGradient
     id="h"
     gradientTransform="matrix(0.658,0,-0.003,0.683,-173.6,-761.4)"
     x1="311.10001"
     x2="336.20001"
     xlink:href="#i"
     y1="1113"
     y2="1157" />
  <linearGradient
     id="i"
     gradientUnits="userSpaceOnUse"
     x1="30.91"
     x2="32.91"
     y1="10.33"
     y2="8.4499998">
    <stop
       offset="0"
       stop-color="#fff"
       id="stop30" />
    <stop
       offset="1"
       stop-color="#fff"
       stop-opacity="0"
       id="stop32" />
  </linearGradient>
  <radialGradient
     id="j"
     cx="1203"
     cy="2355"
     gradientTransform="matrix(0.332,0,0,0.32,-364.4,-757.9)"
     r="50.66"
     xlink:href="#i" />
  <linearGradient
     id="k"
     x1="24.85"
     x2="0"
     xlink:href="#g"
     y1="15.9"
     y2="14.1" />
  <filter
     id="l"
     height="2.5599999"
     width="1.13"
     x="0"
     y="-0.77999997">
    <feGaussianBlur
       stdDeviation="1.105"
       id="feGaussianBlur37" />
  </filter>
  <linearGradient
     id="m"
     xlink:href="#a" />
  <linearGradient
     id="n"
     gradientTransform="matrix(2.774,0,0,1.97,-1892,-872.9)"
     gradientUnits="userSpaceOnUse"
     x1="302.89999"
     x2="302.89999"
     y1="366.60001"
     y2="609.5">
    <stop
       offset="0"
       stop-opacity="0"
       id="stop41" />
    <stop
       offset=".5"
       id="stop43" />
    <stop
       offset="1"
       stop-opacity="0"
       id="stop45" />
  </linearGradient>
  <radialGradient
     id="o"
     cx="605.70001"
     cy="486.60001"
     gradientTransform="matrix(2.774,0,0,1.97,-1892,-872.9)"
     gradientUnits="userSpaceOnUse"
     r="117.1"
     xlink:href="#a" />
  <radialGradient
     id="p"
     cx="605.70001"
     cy="486.60001"
     gradientTransform="matrix(-2.774,0,0,1.97,112.8,-872.9)"
     gradientUnits="userSpaceOnUse"
     r="117.1"
     xlink:href="#a" />
  <g
     transform="matrix(3.034,0,0,3.034,-66.237229,31.444707)"
     id="g72"
     style="filter:url(#filter4567)">
    <g
       transform="matrix(0.0156,0,0,0.0144,50.39,15.28)"
       id="g56">
      <path
         d="M -1559,-150.7 H -219 V 327.7 H -1559 Z"
         id="path50"
         inkscape:connector-curvature="0"
         style="opacity:0.4;fill:url(#n)" />
      <path
         d="m -219.6,-150.7 v 478.3 c 142.9,0.9 345.4,-107.2 345.4,-239.2 0,-132 -159.4,-239.1 -345.4,-239.1 z"
         id="path52"
         inkscape:connector-curvature="0"
         style="opacity:0.4;fill:url(#o)" />
      <path
         d="m -1559,-150.7 v 478.3 c -142.9,0.9 -345.4,-107.2 -345.4,-239.2 0,-132 159.4,-239.1 345.4,-239.1 z"
         id="path54"
         inkscape:connector-curvature="0"
         style="opacity:0.4;fill:url(#p)" />
    </g>
    <ellipse
       cx="36.599998"
       cy="17.9"
       rx="13"
       ry="1.63"
       id="ellipse58"
       style="opacity:0.3;fill:url(#b)" />
    <path
       d="m 38.25,-8.54 c -0.35,-0.64 -0.98,-0.99 -1.69,-0.99 -0.71,0 -1.34,0.42 -1.7,1.06 l -12.1,22.86 c -0.29,0.56 -0.29,1.34 0.06,1.9 0.35,0.56 0.91,0.85 1.62,0.85 h 24.3 c 0.7,0 1.34,-0.35 1.63,-0.92 0.35,-0.56 0.36,-1.27 0.09,-1.91 z"
       id="path60"
       inkscape:connector-curvature="0"
       style="fill:url(#c);stroke:url(#d)" />
    <path
       d="m 28.01,13.6 h 17.2 c 0.3,0 0.49,-0.24 0.31,-0.55 l -8.64,-16.1 c -0.18,-0.3 -0.42,-0.3 -0.55,0 l -8.61,16.1 c -0.19,0.3 0,0.55 0.29,0.55 z"
       id="path62"
       inkscape:connector-curvature="0"
       style="fill:url(#e);stroke:url(#f);stroke-width:0.76999998" />
    <path
       d="m 37.91,-7.55 c -0.48,-0.92 -0.66,-1.21 -1.4,-1.21 -0.63,0 -0.97,0.43 -1.42,1.3 L 23.82,13.88 c -0.65,1.2 -0.72,1.51 -0.41,2.04 0.32,0.53 0.72,0.5 2.21,0.53 h 22.1 c 1.39,0.02 1.7,-0.09 1.96,-0.62 0.32,-0.53 0.18,-0.95 -0.41,-2 z"
       id="path64"
       inkscape:connector-curvature="0"
       style="opacity:0.9;fill:none;stroke:url(#h)" />
    <path
       d="m 36.54,11.8 c -0.74,0 -1.31,-0.58 -1.31,-1.34 0,-0.81 0.52,-1.34 1.31,-1.34 0.8,0 1.26,0.52 1.32,1.34 0,0.76 -0.51,1.34 -1.32,1.34 z M 35.39,1.68 h 2.29 L 36.95,8.43 36.11,7.48 Z"
       id="path66"
       inkscape:connector-curvature="0"
       style="fill:#121312" />
    <path
       d="M 25.4,9.8 45.14,5.09 38.03,-8.28 c -0.71,-1.34 -2.41,-1.27 -3.12,0.08 z"
       id="path68"
       inkscape:connector-curvature="0"
       style="opacity:0.47000002;fill:url(#j)" />
    <path
       d="M 48.74,14.02 H 24.46 c -0.32,0 -0.54,-0.09 -0.71,-0.27 -0.72,1.26 -0.26,2.66 0.7,2.66 h 24.28 c 1.09,0 1.47,-1.08 1,-2.13 -0.42,-1.19 -0.22,-0.39 -0.99,-0.26 z"
       id="path70"
       inkscape:connector-curvature="0"
       style="opacity:0.4;fill:url(#k);filter:url(#l)" />
  </g>
</svg>
